﻿{
    "express":{
        "port":8080,
        "host":"0.0.0.0"
    },
    "data":{
        "users":{
            "url":"https://jsonplaceholder.typicode.com/users"
        }
    },
    "elastic":{
        "url":"elasticsearch:9200",
        "index": "log",
        "type":"usersAPI"
    }
}